<svg width="40" height="15" viewBox="0 0 40 15" fill="none" xmlns="http://www.w3.org/2000/svg">
<g clip-path="url(#clip0_0_1)">
<path d="M17.1184 11.7678C17.1184 11.7678 18.8816 11.6167 18.8816 9.33971C18.8816 7.06271 16.7456 6.85114 16.7456 6.85114H12.8967V14.0348H14.8312V12.3018L16.5038 14.0348H19.3652L17.1184 11.7678ZM16.3728 10.2969H14.8312V8.6546H16.3829C16.3829 8.6546 16.8161 8.8158 16.8161 9.47069C16.8161 10.1256 16.3728 10.2969 16.3728 10.2969ZM23.6574 6.90151H21.6927C20.2922 6.90151 19.8186 8.17099 19.8186 8.7755V14.0348H21.7834V12.7754H23.6272V14.0348H25.5315V8.7755C25.5315 7.24407 24.1411 6.90151 23.6574 6.90151ZM23.6272 10.7402H21.7733V8.99715C21.7733 8.99715 21.7733 8.60422 22.3879 8.60422H23.063C23.6071 8.60422 23.6171 8.99715 23.6171 8.99715V10.7402H23.6272ZM26.4282 6.90151H28.4736V14.0348H26.4282V6.90151ZM31.3451 12.191V6.90151H29.3098V12.191V14.0348H31.3451H34.0957V12.191H31.3451ZM34.7708 12.2111V14.0348H38.0655C38.7406 14.0348 39.8992 13.5411 39.9396 12.1608V11.4555C39.9396 10.2767 38.9723 9.58152 38.0655 9.58152H36.4232V8.7352H39.6776V6.90151H36.5542C35.7481 6.90151 34.67 7.56647 34.67 8.80573V9.44046C34.67 10.6797 35.738 11.3145 36.5542 11.3145C38.8212 11.3245 36.0101 11.3145 38.1058 11.3145V12.2011L34.7708 12.2111Z" fill="#CC0000"/>
<path d="M0.70529 14.0247H8.66499C8.66499 14.0247 7.14358 7.08287 12.1814 4.27189C13.2796 3.7379 16.7758 1.74301 22.4987 5.9746C22.6801 5.82347 22.8514 5.70257 22.8514 5.70257C22.8514 5.70257 17.6121 0.473535 11.7783 1.0579C8.84635 1.31985 5.23929 3.98978 3.12343 7.51611C1.00756 11.0424 0.70529 14.0247 0.70529 14.0247ZM17.2897 1.62211L17.33 0.94707C17.2393 0.896694 16.9874 0.775791 16.3526 0.594437L16.3123 1.2594C16.6448 1.37023 16.9673 1.49113 17.2897 1.62211ZM16.3325 3.75805L16.2922 4.39279C16.6247 4.40287 16.9572 4.44317 17.2897 4.51369L17.33 3.88903C16.9874 3.8185 16.6549 3.7782 16.3325 3.75805ZM12.6045 0.614588H12.7053L12.5038 0C12.1914 0 11.869 0.0201504 11.5365 0.0604513L11.728 0.654889C12.0202 0.624663 12.3123 0.614588 12.6045 0.614588ZM13.0882 4.32226L13.3199 5.01745C13.6121 4.8764 13.9043 4.7555 14.1965 4.66482L13.9748 3.99986C13.6322 4.10061 13.34 4.21144 13.0882 4.32226ZM8.51385 1.67248L8.06045 0.977295C7.80856 1.10827 7.5466 1.24933 7.27456 1.41053L7.73804 2.11579C8 1.95459 8.25189 1.80346 8.51385 1.67248ZM10.5793 6.20633L11.063 6.93174C11.2343 6.67986 11.4358 6.44813 11.6574 6.2164L11.204 5.53129C10.9723 5.74287 10.7607 5.9746 10.5793 6.20633ZM9.11839 9.45055L9.93451 10.0954C9.97481 9.70243 10.0453 9.30949 10.1461 8.91656L9.42065 8.34227C9.28967 8.71506 9.19899 9.08784 9.11839 9.45055ZM4.70529 4.66482L3.98992 4.04016C3.72796 4.29204 3.47607 4.54392 3.24433 4.7958L4.02015 5.46076C4.23174 5.18873 4.46348 4.9167 4.70529 4.66482ZM1.66247 9.16844L0.503778 8.74528C0.312343 9.17852 0.100756 9.68228 0 9.95431L1.15869 10.3775C1.28967 10.0349 1.50126 9.54122 1.66247 9.16844ZM8.96725 12.0096C8.98741 12.5436 9.03778 12.9769 9.08816 13.2791L10.2972 13.7124C10.2065 13.3194 10.1159 12.8761 10.0554 12.4026L8.96725 12.0096Z" fill="#CC0000"/>
</g>
<defs>
<clipPath id="clip0_0_1">
<rect width="40" height="14.035" fill="white"/>
</clipPath>
</defs>
</svg>
