<svg width="38" height="32" viewBox="0 0 38 32" fill="none" xmlns="http://www.w3.org/2000/svg">
<g clip-path="url(#clip0_0_1)">
<path d="M29.656 0H37.07L18.535 31.9729L0 0H14.1793L18.535 7.414L22.7981 0H29.656Z" fill="#41B883"/>
<path d="M0 0L18.535 31.9729L37.07 0H29.656L18.535 19.1837L7.32133 0H0Z" fill="#41B883"/>
<path d="M7.32129 0L18.535 19.2764L29.656 0H22.798L18.535 7.414L14.1792 0H7.32129Z" fill="#35495E"/>
</g>
<defs>
<clipPath id="clip0_0_1">
<rect width="37.07" height="31.97" fill="white"/>
</clipPath>
</defs>
</svg>
