<svg width="15" height="15" viewBox="0 0 15 15" fill="none" xmlns="http://www.w3.org/2000/svg">
<g clip-path="url(#clip0_0_1)">
<path d="M0.0292969 11.8883C0.0292969 8.99143 0.0292969 6.09459 0.04285 3.18177C0.0807373 3.16521 0.105072 3.16411 0.129406 3.16411C5.04258 3.16403 9.95576 3.16402 14.8689 3.16429C14.9126 3.16429 14.9563 3.16823 15 3.17032C15 6.06717 15 8.96401 14.9864 11.8768C14.9486 11.8934 14.9242 11.8945 14.8999 11.8945C9.98671 11.8946 5.07353 11.8946 0.160357 11.8943C0.11667 11.8943 0.0729835 11.8904 0.0292969 11.8883ZM2.06063 6.76662C2.04134 6.7672 2.02202 6.76871 2.00276 6.76819C1.91678 6.76588 1.84252 6.76231 1.83931 6.88955C1.83621 7.01212 1.89136 7.04214 1.99398 7.0621C1.99375 7.2181 1.99352 7.37411 1.96971 7.53425C1.85818 7.5243 1.85215 7.59263 1.8469 7.68044C1.83975 7.79994 1.91581 7.79797 1.99402 7.82921C1.99405 7.97401 1.99408 8.11881 1.97567 8.27579C1.79177 8.30904 1.85634 8.44217 1.85703 8.56191C1.90695 8.55496 1.94831 8.5492 1.99221 8.57196C1.99236 8.74066 1.99251 8.90937 1.9676 9.07923C1.88053 9.07227 1.83427 9.10582 1.84213 9.19981C1.84602 9.24633 1.84277 9.29345 1.81924 9.34442C1.60601 9.36117 1.75715 9.51015 1.71079 9.59519C2.10026 9.59519 2.47164 9.59519 2.8438 9.59519C2.8438 9.50776 2.8438 9.43231 2.8438 9.35426C2.79564 9.34884 2.75729 9.34453 2.719 9.31434C2.70685 9.21226 2.77562 9.05913 2.57016 9.05151C2.56968 8.82399 2.5692 8.59647 2.58632 8.35712C2.77038 8.32383 2.70934 8.19147 2.7052 8.07147C2.6559 8.07782 2.61417 8.08319 2.57115 8.06196C2.57061 7.97572 2.57006 7.88948 2.59684 7.79903C2.72451 7.80188 2.85217 7.80473 2.98024 7.83261C2.98143 8.11356 2.96951 8.39539 2.98814 8.67519C3.002 8.88336 3.0729 9.07935 3.27448 9.2164C3.28711 9.23759 3.29974 9.25878 3.31464 9.2997C3.86857 9.66179 4.46796 9.676 5.08135 9.51076C5.22952 9.47085 5.35964 9.36389 5.51433 9.27664C5.73799 9.09374 5.8594 8.86497 5.84513 8.56877C5.83695 8.39907 5.84204 8.22872 5.84298 8.03236C5.84506 7.9539 5.84714 7.87543 5.8763 7.797C6.00558 7.79931 6.13485 7.80163 6.26402 7.82897C6.26321 7.91478 6.26241 8.00058 6.23961 8.08561C6.20433 8.08107 6.16906 8.07654 6.13215 8.07179C6.1061 8.2104 6.08923 8.33271 6.26376 8.39418C6.27204 8.6284 6.28032 8.86262 6.2875 9.12247C6.27758 9.19506 6.26767 9.26764 6.23166 9.34439C6.15471 9.34439 6.07776 9.34439 5.99179 9.34439C5.99179 9.43659 5.99179 9.51654 5.99179 9.59692C6.37077 9.59692 6.74122 9.59692 7.12739 9.59692C7.12739 9.51074 7.12739 9.43406 7.13061 9.32972C7.13947 9.08147 7.13947 9.08148 6.89748 9.07998C6.87844 9.07986 6.8594 9.07943 6.84005 9.05181C6.84146 8.88131 6.84288 8.71081 6.86541 8.54461C6.90093 8.54904 6.93646 8.55346 6.97518 8.55827C6.9952 8.41967 7.00943 8.29672 6.83989 8.23381C6.83968 8.09033 6.83947 7.94685 6.86423 7.79938C6.97023 7.81068 6.98199 7.75084 6.98764 7.66136C6.99525 7.54081 6.92803 7.52976 6.83999 7.50252C6.83919 7.34637 6.8384 7.19023 6.86276 7.03287C6.98352 7.04534 6.98968 6.97001 6.98942 6.87826C6.98916 6.78447 6.93983 6.76426 6.86117 6.76824C6.82291 6.77018 6.78439 6.76705 6.75083 6.74266C6.82192 6.43554 6.79673 6.38579 6.5692 6.38395C6.31763 6.38192 6.28254 6.42738 6.34081 6.67928C6.34734 6.70752 6.35262 6.73605 6.33086 6.76633C6.3115 6.76699 6.29213 6.76857 6.2728 6.76814C6.18708 6.76626 6.11173 6.76125 6.10833 6.88939C6.10506 7.01275 6.1614 7.04185 6.26393 7.06247C6.26378 7.21817 6.26363 7.37386 6.23579 7.53352C6.10717 7.53462 5.97855 7.53572 5.84582 7.50872C5.84501 7.35423 5.84862 7.19955 5.84219 7.04529C5.83522 6.87823 5.73348 6.77877 5.56661 6.76946C5.46555 6.76383 5.3641 6.76536 5.26309 6.73836C5.26366 6.66263 5.26423 6.5869 5.2811 6.49994C5.37072 6.42218 5.46034 6.34443 5.57003 6.2626C5.69431 6.14841 5.73961 6.01027 5.66685 5.85464C5.55602 5.61757 5.34821 5.58094 5.1207 5.61768C4.96085 5.37531 4.82447 5.31558 4.56222 5.34265C4.57557 5.20197 4.47713 5.22262 4.38904 5.21696C4.27204 5.20945 4.26394 5.28043 4.24556 5.36232C4.05692 5.31693 3.89292 5.36599 3.78276 5.52279C3.72556 5.60421 3.67692 5.61858 3.58406 5.6076C3.3991 5.58573 3.21991 5.70633 3.15849 5.87206C3.10043 6.02871 3.14934 6.17375 3.30267 6.26928C3.39046 6.3495 3.47825 6.42971 3.56659 6.53524C3.5664 6.6112 3.56621 6.68716 3.53918 6.76611C3.46655 6.76662 3.39391 6.76683 3.32128 6.76769C3.09372 6.7704 2.99494 6.86751 2.99039 7.09563C2.98827 7.20219 2.98667 7.30894 2.99079 7.41537C2.99407 7.50016 2.96557 7.5419 2.87492 7.53665C2.77356 7.53078 2.67178 7.53214 2.57013 7.50279C2.5694 7.34667 2.56866 7.19055 2.59317 7.03305C2.71383 7.0453 2.72079 6.97041 2.72037 6.87809C2.71995 6.78371 2.66986 6.76438 2.59135 6.76822C2.55299 6.77009 2.51437 6.76679 2.48071 6.74209C2.5483 6.42237 2.52736 6.38416 2.28437 6.38393C2.05165 6.38371 2.01324 6.43381 2.06779 6.66555C2.07554 6.69845 2.08137 6.7318 2.06063 6.76662Z" fill="#FFD250"/>
<path d="M0.0292969 11.9058C0.0729926 11.8944 0.116688 11.8983 0.160384 11.8983C5.07458 11.8985 9.98877 11.8985 14.903 11.8985C14.9273 11.8985 14.9516 11.8974 14.9895 11.8945C15.0031 12.0382 15.0031 12.184 14.9917 12.3386C14.9371 12.5003 14.9046 12.6573 14.8486 12.8055C14.6382 13.3625 14.3267 13.8489 13.8605 14.2369C13.4329 14.5929 12.9531 14.8283 12.4099 14.9438C12.3843 14.9493 12.3643 14.9807 12.3417 15C9.13385 15 5.92596 15 2.70926 14.9887C2.53818 14.9295 2.37318 14.8892 2.21415 14.8323C1.65775 14.6334 1.18266 14.3188 0.798915 13.8653C0.440381 13.4415 0.19738 12.9668 0.0858168 12.4247C0.0806059 12.3993 0.0487457 12.3794 0.0292969 12.357C0.0292969 12.2111 0.0292969 12.0653 0.0292969 11.9058Z" fill="#C8424B"/>
<path d="M15 3.15264C14.9563 3.16423 14.9126 3.16029 14.8689 3.16028C9.95472 3.16001 5.04052 3.16003 0.126329 3.16011C0.10199 3.16011 0.0776504 3.16121 0.0397552 3.16406C0.0261993 3.01909 0.0261993 2.87186 0.0375679 2.71583C0.0601058 2.69234 0.0786613 2.67888 0.0813805 2.66274C0.192086 2.00578 0.50566 1.45159 0.965242 0.984311C1.426 0.515836 1.98453 0.211791 2.63403 0.0854791C2.65472 0.081456 2.66984 0.0486728 2.68756 0.0292969C5.89545 0.0292969 9.10334 0.0292969 12.32 0.0406743C12.3435 0.06326 12.3569 0.0816149 12.373 0.0846511C13.1659 0.23335 13.8076 0.638837 14.309 1.26165C14.6341 1.66536 14.8463 2.12999 14.944 2.64357C14.9479 2.66427 14.9807 2.67948 15 2.69724C15 2.84448 15 2.99172 15 3.15264Z" fill="#C8424B"/>
<path d="M3.3188 9.28249C3.30615 9.26127 3.29349 9.24005 3.28044 9.19611C3.28079 8.84389 3.28426 8.51435 3.27892 8.18494C3.27823 8.14224 3.22638 8.06131 3.20773 8.064C3.02482 8.09034 2.99093 7.99389 3.00641 7.8445C3.00758 7.83317 2.99292 7.8202 2.98562 7.80799C2.8577 7.80513 2.72979 7.80228 2.5748 7.79925C2.36449 7.80065 2.18124 7.80221 1.99798 7.80377C1.91951 7.79836 1.8433 7.80033 1.85046 7.68066C1.85572 7.59272 1.86177 7.5243 1.99838 7.53498C2.20722 7.53392 2.39119 7.53214 2.57516 7.53036C2.67695 7.53215 2.77893 7.53079 2.88049 7.53666C2.97132 7.54192 2.99988 7.50012 2.99659 7.41522C2.99247 7.30863 2.99407 7.20172 2.99619 7.09501C3.00075 6.86657 3.09972 6.76931 3.32773 6.76661C3.4005 6.76574 3.47328 6.76553 3.57323 6.76529C3.87533 6.76752 4.15027 6.76947 4.42512 6.78492C4.42507 7.08828 4.42511 7.37815 4.41363 7.67037C4.31423 7.7032 4.22636 7.73367 4.13764 7.75119C4.13098 7.6472 4.16337 7.54675 4.01953 7.5142C3.95558 7.49973 3.98598 7.31487 4.06181 7.29148C4.17999 7.25502 4.13131 7.16438 4.12619 7.09837C4.12417 7.07236 4.05242 7.03333 4.01132 7.0319C3.81157 7.02495 3.61134 7.02518 3.41156 7.03157C3.36888 7.03293 3.29434 7.06695 3.29168 7.09199C3.28455 7.15918 3.24151 7.24721 3.35204 7.29105C3.3868 7.30484 3.42371 7.36605 3.42237 7.40425C3.42079 7.44915 3.38895 7.51621 3.35216 7.53227C3.24443 7.5793 3.28522 7.66541 3.29305 7.7328C3.29599 7.75811 3.37071 7.79169 3.41357 7.79299C3.64262 7.79996 3.87194 7.79791 4.09662 7.80768C3.95732 8.01751 3.96814 8.14626 4.13654 8.36671C4.13545 8.66137 4.13501 8.94258 4.12619 9.23067C4.03426 9.27076 3.95074 9.30395 3.86574 9.32206C3.86427 8.89468 3.86427 8.4824 3.86427 8.07477C3.5732 8.02928 3.57254 8.0298 3.57251 8.28693C3.57248 8.58423 3.57515 8.88158 3.56987 9.17878C3.56899 9.22834 3.53362 9.27728 3.50313 9.32378C3.43431 9.3082 3.37655 9.29535 3.3188 9.28249Z" fill="#C9454C"/>
<path d="M4.42515 7.66801C4.4251 7.37814 4.42506 7.08827 4.43873 6.78353C4.72598 6.76664 4.99952 6.7646 5.27306 6.76257C5.37454 6.76426 5.47619 6.76273 5.57744 6.76837C5.74464 6.77768 5.84658 6.87729 5.85356 7.04459C5.86 7.19907 5.85638 7.35397 5.8569 7.53521C5.85794 7.64027 5.85927 7.71881 5.8606 7.79735C5.85852 7.87593 5.85644 7.9545 5.84033 8.04564C5.50526 8.058 5.18422 8.05779 4.85968 8.04732C4.79208 7.79087 4.68965 7.70316 4.42515 7.66801ZM4.88769 7.1718C4.87884 7.2918 4.86272 7.41182 4.86297 7.5318C4.86328 7.68531 4.96903 7.78803 5.11651 7.79395C5.28385 7.80068 5.40425 7.70337 5.41835 7.54471C5.42436 7.47712 5.41835 7.40856 5.42131 7.34059C5.42722 7.2048 5.37703 7.09748 5.24771 7.05001C5.11297 7.00055 4.98838 7.02325 4.88769 7.1718Z" fill="#F5F3F3"/>
<path d="M5.56076 6.26485C5.47097 6.34272 5.38117 6.42058 5.26942 6.50262C4.6893 6.50734 4.13113 6.5079 3.57296 6.50845C3.485 6.42812 3.39704 6.34779 3.30826 6.25122C3.36073 6.1818 3.41401 6.12862 3.47622 6.07119C3.54902 6.01759 3.61289 5.96822 3.68668 5.91789C3.8028 5.87133 3.909 5.82573 4.02743 5.77884C4.1281 5.76224 4.21654 5.74694 4.31815 5.73376C4.41141 5.73601 4.49149 5.73612 4.58302 5.73855C4.67706 5.75709 4.75964 5.77332 4.85366 5.79386C4.96766 5.83858 5.07022 5.87899 5.17946 5.9274C5.25227 5.98089 5.31841 6.02638 5.38931 6.08019C5.44963 6.14729 5.5052 6.20607 5.56076 6.26485ZM4.3306 6.15525C4.32862 6.21479 4.30228 6.30224 4.33065 6.32699C4.36836 6.3599 4.45398 6.36011 4.50858 6.34232C4.53691 6.33309 4.56736 6.24584 4.55402 6.20963C4.51931 6.11543 4.43787 6.1038 4.3306 6.15525ZM4.93158 6.35968C5.01773 6.39506 5.09287 6.3762 5.12017 6.28717C5.13197 6.24868 5.10408 6.16639 5.07363 6.1538C5.02497 6.13369 4.94433 6.1345 4.90385 6.16357C4.83315 6.21433 4.84483 6.28954 4.93158 6.35968ZM3.78957 6.35933C3.87526 6.39448 3.95102 6.37774 3.97855 6.2879C3.99039 6.24925 3.96316 6.16698 3.93284 6.15429C3.8842 6.13391 3.8035 6.13414 3.76284 6.163C3.69174 6.21345 3.70321 6.28878 3.78957 6.35933Z" fill="#C9444C"/>
<path d="M4.86317 8.05759C5.18422 8.05779 5.50526 8.058 5.83941 8.05882C5.85341 8.22973 5.84831 8.40031 5.85651 8.57026C5.87081 8.86688 5.74916 9.09599 5.50514 9.28299C5.43889 9.29994 5.39265 9.31338 5.34621 9.32609C4.92604 9.44107 4.5438 9.21981 4.44118 8.79232C4.43615 8.67124 4.43072 8.55993 4.43667 8.44609C4.53609 8.4133 4.62415 8.38305 4.71314 8.36614C4.71431 8.46693 4.71429 8.55438 4.71486 8.64182C4.71673 8.92438 4.87137 9.08597 5.13878 9.08508C5.40506 9.08419 5.56421 8.91902 5.56614 8.64123C5.56658 8.57808 5.56142 8.51448 5.56727 8.45187C5.57664 8.35152 5.53916 8.31466 5.43597 8.31715C5.20782 8.32266 4.97941 8.31739 4.75554 8.30787C4.79438 8.21868 4.82878 8.13813 4.86317 8.05759Z" fill="#C9454E"/>
<path d="M4.4408 8.80209C4.54381 9.21979 4.92605 9.44106 5.34621 9.32608C5.39265 9.31337 5.43889 9.29993 5.49699 9.28855C5.37007 9.36652 5.23969 9.47362 5.09124 9.51359C4.47664 9.67907 3.87608 9.66484 3.31993 9.29235C3.37655 9.29533 3.4343 9.30818 3.51301 9.32996C3.64504 9.33829 3.75612 9.33771 3.8672 9.33712C3.95073 9.30393 4.03426 9.27074 4.13485 9.22746C4.2482 9.07895 4.3445 8.94052 4.4408 8.80209Z" fill="#F5F3F0"/>
<path d="M3.57324 6.52113C4.13113 6.5079 4.6893 6.50734 5.26126 6.50824C5.27448 6.58554 5.27391 6.66138 5.2732 6.74989C4.99953 6.7646 4.72599 6.76663 4.43883 6.77004C4.15027 6.76946 3.87533 6.7675 3.58668 6.76379C3.57314 6.68595 3.57333 6.60988 3.57324 6.52113Z" fill="#F9B346"/>
<path d="M3.4673 6.07543C3.41401 6.12861 3.36073 6.1818 3.30091 6.24463C3.15545 6.1718 3.10644 6.02655 3.16461 5.86967C3.22616 5.7037 3.4057 5.58293 3.59102 5.60483C3.68406 5.61582 3.7328 5.60144 3.79011 5.5199C3.90048 5.36288 4.0648 5.31374 4.26667 5.37428C4.28052 5.47867 4.28151 5.56796 4.27174 5.65575C4.09044 5.56273 4.01242 5.60269 4.01519 5.78013C3.909 5.82573 3.8028 5.87133 3.67971 5.90888C3.59779 5.90283 3.52596 5.88972 3.47119 5.91442C3.44999 5.92398 3.46745 6.01923 3.4673 6.07543Z" fill="#F5F3F0"/>
<path d="M5.17278 5.9194C5.07022 5.87899 4.96765 5.83858 4.85763 5.78445C4.82608 5.59224 4.75603 5.56463 4.56906 5.64635C4.57013 5.54338 4.57116 5.454 4.57218 5.36461C4.83385 5.3124 4.9705 5.37221 5.13066 5.61493C5.35862 5.57813 5.56683 5.61481 5.67788 5.85222C5.75078 6.00808 5.70539 6.14642 5.57081 6.26281C5.50519 6.20607 5.44962 6.14729 5.39677 6.07148C5.38776 5.99981 5.38715 5.90562 5.36205 5.89856C5.30539 5.88263 5.23662 5.90978 5.17278 5.9194Z" fill="#F5F3F0"/>
<path d="M6.30086 9.09908C6.29256 8.86453 6.28426 8.62997 6.28729 8.38287C6.48495 8.42747 6.67129 8.48461 6.85763 8.54175C6.85622 8.7125 6.8548 8.88324 6.84014 9.07006C6.65155 9.09045 6.47621 9.09476 6.30086 9.09908Z" fill="#F5F3F0"/>
<path d="M2.57368 8.37015C2.57417 8.59799 2.57465 8.82584 2.56195 9.06973C2.36468 9.08395 2.18059 9.08212 1.9965 9.08029C1.99635 8.91134 1.9962 8.74239 2.0031 8.55349C2.198 8.47907 2.38584 8.42461 2.57368 8.37015Z" fill="#F5F3F0"/>
<path d="M7.14128 9.35999C7.14128 9.43678 7.14128 9.51357 7.14128 9.59988C6.75435 9.59988 6.38317 9.59988 6.00345 9.59988C6.00345 9.51938 6.00345 9.43931 6.00345 9.34698C6.08959 9.34698 6.16669 9.34698 6.27039 9.34706C6.57842 9.35142 6.85985 9.3557 7.14128 9.35999Z" fill="#5567A7"/>
<path d="M2.7242 9.34283C2.76263 9.34715 2.80105 9.35147 2.84931 9.35689C2.84931 9.43506 2.84931 9.51061 2.84931 9.59817C2.47642 9.59817 2.10431 9.59817 1.71408 9.59817C1.76052 9.513 1.60909 9.36381 1.84802 9.34712C2.15694 9.34575 2.44057 9.34429 2.7242 9.34283Z" fill="#5567A7"/>
<path d="M5.87417 7.79735C5.85928 7.7188 5.85794 7.64026 5.85897 7.54927C5.99019 7.53571 6.11906 7.53461 6.27476 7.53429C6.48551 7.53337 6.66943 7.53169 6.85334 7.53C6.94153 7.52975 7.00888 7.54081 7.00126 7.66154C6.9956 7.75115 6.98381 7.81107 6.85164 7.79951C6.64256 7.80096 6.45945 7.80264 6.27633 7.80433C6.1468 7.80201 6.01727 7.79969 5.87417 7.79735Z" fill="#CB494F"/>
<path d="M2.98582 7.8205C2.99292 7.82018 3.00758 7.83315 3.0064 7.84448C2.99093 7.99387 3.02481 8.09032 3.20772 8.06398C3.22638 8.06129 3.27822 8.14222 3.27892 8.18493C3.28426 8.51433 3.28078 8.84387 3.27777 9.18709C3.07886 9.08157 3.00782 8.88529 2.99393 8.67682C2.97526 8.39663 2.98721 8.11439 2.98582 7.8205Z" fill="#FAB547"/>
<path d="M2.57513 7.51654C2.39119 7.53212 2.20721 7.53391 2.01019 7.53289C1.99737 7.37387 1.9976 7.21764 2.01156 7.04669C2.20782 7.03254 2.39036 7.03313 2.5729 7.03371C2.57363 7.19005 2.57437 7.3464 2.57513 7.51654Z" fill="#F5F3F0"/>
<path d="M6.85334 7.51624C6.66943 7.53169 6.48552 7.53338 6.28864 7.5323C6.27584 7.37363 6.27599 7.21771 6.28969 7.04697C6.48581 7.03256 6.66837 7.03296 6.85093 7.03337C6.85173 7.18974 6.85253 7.3461 6.85334 7.51624Z" fill="#F5F3F0"/>
<path d="M6.8682 8.54392C6.67128 8.48463 6.48494 8.42749 6.28745 8.36838C6.10109 8.33387 6.11799 8.21138 6.14409 8.07257C6.18107 8.07732 6.21642 8.08187 6.27113 8.09304C6.47767 8.15386 6.66485 8.20804 6.85203 8.26222C7.02309 8.29782 7.00883 8.42095 6.98877 8.55976C6.94997 8.55493 6.91438 8.5505 6.8682 8.54392Z" fill="#CB494F"/>
<path d="M2.58251 8.36422C2.38585 8.42461 2.198 8.47907 2.00184 8.53921C1.95207 8.55066 1.91063 8.55642 1.86062 8.56338C1.85992 8.44347 1.79523 8.31015 1.99984 8.27035C2.20594 8.20568 2.39169 8.14752 2.57743 8.08936C2.61924 8.08398 2.66105 8.07859 2.71044 8.07224C2.71459 8.19241 2.77575 8.32496 2.58251 8.36422Z" fill="#CB494F"/>
<path d="M2.57678 8.07604C2.39169 8.14753 2.20594 8.20569 2.00908 8.26426C1.99793 8.11965 1.9979 7.97464 1.99793 7.8167C2.18124 7.8022 2.36449 7.80064 2.56112 7.80135C2.57504 7.88999 2.57559 7.97635 2.57678 8.07604Z" fill="#F4EFEC"/>
<path d="M2.72424 9.32985C2.44058 9.34427 2.15695 9.34572 1.85981 9.34503C1.84632 9.29597 1.84957 9.24878 1.84568 9.2022C1.8378 9.10807 1.88415 9.07447 1.98395 9.08087C2.18059 9.08212 2.36468 9.08395 2.56213 9.08339C2.78099 9.06131 2.71209 9.21466 2.72424 9.32985Z" fill="#FAB547"/>
<path d="M6.86353 7.03275C6.66836 7.03296 6.48579 7.03255 6.29013 7.03352C6.1734 7.04114 6.11694 7.01199 6.12022 6.88845C6.12363 6.76014 6.19913 6.76515 6.28501 6.76704C6.30438 6.76746 6.32379 6.76588 6.3694 6.76528C6.51679 6.76526 6.63796 6.76518 6.75912 6.76511C6.7976 6.76594 6.83619 6.76908 6.87453 6.76714C6.95335 6.76315 7.00277 6.78339 7.00304 6.87731C7.00329 6.9692 6.99712 7.04463 6.86353 7.03275Z" fill="#FAB547"/>
<path d="M2.58555 7.03303C2.39036 7.03314 2.20782 7.03256 2.01211 7.03322C1.89501 7.04145 1.83975 7.01138 1.84285 6.88864C1.84607 6.76121 1.92048 6.76479 2.00662 6.7671C2.02592 6.76762 2.04528 6.76611 2.09089 6.76549C2.23834 6.76522 2.3595 6.76498 2.48066 6.76474C2.51924 6.7657 2.55793 6.76901 2.59636 6.76713C2.67503 6.76328 2.72521 6.78265 2.72564 6.87716C2.72606 6.96962 2.71909 7.04461 2.58555 7.03303Z" fill="#FAB547"/>
<path d="M6.85263 8.24851C6.66485 8.20803 6.47768 8.15384 6.28216 8.09341C6.27461 8.00124 6.27542 7.91532 6.27628 7.81686C6.45945 7.80264 6.64257 7.80096 6.83914 7.80151C6.8528 7.94743 6.85301 8.09112 6.85263 8.24851Z" fill="#F4EFEC"/>
<path d="M7.1429 9.34616C6.85985 9.35572 6.57842 9.35143 6.28346 9.34499C6.27987 9.27014 6.28981 9.19745 6.3003 9.11193C6.4762 9.09478 6.65155 9.09046 6.84029 9.08375C6.87277 9.08166 6.89185 9.08209 6.91092 9.08221C7.15338 9.08372 7.15338 9.0837 7.1429 9.34616Z" fill="#FAB547"/>
<path d="M6.76156 6.75332C6.63796 6.76519 6.51679 6.76526 6.38324 6.76434C6.36499 6.73491 6.3597 6.70634 6.35316 6.67806C6.29478 6.42579 6.32994 6.38026 6.582 6.3823C6.80997 6.38414 6.83522 6.43396 6.76156 6.75332Z" fill="#C9444C"/>
<path d="M2.48309 6.75286C2.3595 6.76498 2.23833 6.76522 2.10464 6.76466C2.08539 6.73067 2.07954 6.69727 2.07178 6.66432C2.01712 6.43225 2.05561 6.38207 2.28879 6.38229C2.53224 6.38253 2.55323 6.42078 2.48309 6.75286Z" fill="#C9444C"/>
<path d="M4.57164 5.35207C4.57117 5.45401 4.57014 5.5434 4.56908 5.65589C4.56988 5.69808 4.57072 5.71717 4.57157 5.73626C4.49149 5.73614 4.41141 5.73603 4.31796 5.72572C4.29723 5.69611 4.28987 5.67669 4.2825 5.65727C4.28151 5.56798 4.28052 5.47869 4.27798 5.37618C4.27223 5.27721 4.28034 5.20613 4.39757 5.21365C4.48584 5.21931 4.58447 5.19864 4.57164 5.35207Z" fill="#F9B346"/>
<path d="M4.10116 7.79898C3.87194 7.79791 3.64261 7.79996 3.41357 7.79299C3.3707 7.79169 3.29599 7.75811 3.29304 7.7328C3.28521 7.66541 3.24442 7.5793 3.35216 7.53227C3.38894 7.51621 3.42079 7.44915 3.42236 7.40425C3.42371 7.36605 3.38679 7.30484 3.35203 7.29105C3.2415 7.24721 3.28455 7.15919 3.29167 7.09199C3.29433 7.06695 3.36887 7.03293 3.41155 7.03157C3.61133 7.02518 3.81156 7.02495 4.01131 7.0319C4.05241 7.03333 4.12417 7.07236 4.12618 7.09837C4.1313 7.16438 4.17999 7.25502 4.0618 7.29148C3.98597 7.31487 3.95557 7.49973 4.01953 7.5142C4.16336 7.54675 4.13097 7.6472 4.13276 7.75837C4.11955 7.78533 4.11036 7.79215 4.10116 7.79898Z" fill="#FBB245"/>
<path d="M4.09661 7.80768C4.11035 7.79216 4.11955 7.78533 4.13361 7.77133C4.22635 7.73368 4.31422 7.70321 4.41362 7.67038C4.68964 7.70318 4.79208 7.79088 4.85968 8.04733C4.82877 8.13815 4.79438 8.2187 4.74791 8.31265C4.72795 8.33498 4.72008 8.3439 4.7122 8.35281C4.62415 8.38306 4.53609 8.41331 4.42498 8.44322C4.31367 8.413 4.22542 8.38313 4.13718 8.35326C3.96813 8.14627 3.95731 8.01752 4.09661 7.80768Z" fill="#5264A9"/>
<path d="M3.86573 9.32204C3.75612 9.33771 3.64505 9.3383 3.52408 9.33269C3.53362 9.27726 3.56899 9.22832 3.56987 9.17876C3.57515 8.88156 3.57248 8.58421 3.57251 8.28691C3.57253 8.02978 3.5732 8.02926 3.86427 8.07475C3.86427 8.48238 3.86427 8.89467 3.86573 9.32204Z" fill="#F8AF47"/>
<path d="M4.13653 8.3667C4.22543 8.38311 4.31367 8.41298 4.41361 8.44574C4.43072 8.55993 4.43614 8.67123 4.44118 8.79232C4.3445 8.94053 4.2482 9.07896 4.14323 9.22058C4.135 8.94256 4.13544 8.66136 4.13653 8.3667Z" fill="#F8AF47"/>
<path d="M4.89395 7.1617C4.98839 7.02326 5.11298 7.00056 5.24772 7.05002C5.37704 7.09749 5.42723 7.20481 5.42132 7.3406C5.41836 7.40857 5.42437 7.47714 5.41837 7.54472C5.40426 7.70338 5.28386 7.80069 5.11652 7.79397C4.96904 7.78804 4.86329 7.68532 4.86298 7.53182C4.86274 7.41183 4.87885 7.29181 4.89395 7.1617Z" fill="#FFA1D2"/>
<path d="M4.33986 6.14885C4.43787 6.10382 4.51931 6.11545 4.55402 6.20964C4.56737 6.24586 4.53692 6.3331 4.50858 6.34233C4.45398 6.36012 4.36836 6.35991 4.33065 6.32701C4.30228 6.30225 4.32862 6.2148 4.33986 6.14885Z" fill="#FFD250"/>
<path d="M4.92179 6.3544C4.84482 6.28956 4.83314 6.21435 4.90384 6.16358C4.94432 6.13452 5.02497 6.13371 5.07362 6.15382C5.10407 6.16641 5.13196 6.2487 5.12016 6.28719C5.09286 6.37621 5.01772 6.39508 4.92179 6.3544Z" fill="#FFD250"/>
<path d="M3.77984 6.35403C3.7032 6.2888 3.69173 6.21347 3.76284 6.16301C3.8035 6.13416 3.8842 6.13393 3.93284 6.1543C3.96316 6.167 3.99039 6.24927 3.97855 6.28791C3.95101 6.37776 3.87526 6.3945 3.77984 6.35403Z" fill="#FFD250"/>
<path d="M4.58302 5.73855C4.57072 5.71715 4.56988 5.69806 4.56903 5.66945C4.75604 5.56463 4.82609 5.59224 4.84621 5.78015C4.75964 5.77333 4.67705 5.7571 4.58302 5.73855Z" fill="#FFD250"/>
<path d="M4.27174 5.65575C4.28987 5.67667 4.29724 5.69609 4.30479 5.72357C4.21654 5.74693 4.12811 5.76223 4.02743 5.77883C4.01243 5.60269 4.09044 5.56273 4.27174 5.65575Z" fill="#FFD250"/>
<path d="M5.17946 5.9274C5.23663 5.90978 5.3054 5.88263 5.36206 5.89856C5.38716 5.90562 5.38776 5.99982 5.39202 6.06317C5.31841 6.02638 5.25227 5.98089 5.17946 5.9274Z" fill="#FFD250"/>
<path d="M3.47622 6.07121C3.46745 6.01924 3.44999 5.924 3.47119 5.91444C3.52596 5.88973 3.59779 5.90285 3.66978 5.90987C3.61288 5.96824 3.54901 6.0176 3.47622 6.07121Z" fill="#FFD250"/>
<path d="M4.71313 8.36615C4.72008 8.34389 4.72796 8.33497 4.74347 8.32129C4.97941 8.3174 5.20782 8.32267 5.43597 8.31716C5.53916 8.31467 5.57664 8.35153 5.56727 8.45188C5.56142 8.51449 5.56658 8.57809 5.56614 8.64124C5.56421 8.91903 5.40506 9.0842 5.13878 9.08509C4.87137 9.08598 4.71673 8.92439 4.71486 8.64183C4.71429 8.55439 4.71431 8.46694 4.71313 8.36615ZM5.06625 8.81047C5.10867 8.81173 5.16461 8.83033 5.19037 8.81024C5.22982 8.77947 5.2576 8.72466 5.27192 8.67477C5.27866 8.65131 5.24371 8.59063 5.2256 8.58976C5.15659 8.58646 5.08674 8.60066 5.01721 8.60831C5.02667 8.6712 5.03613 8.73409 5.06625 8.81047Z" fill="#F9B346"/>
<path d="M5.05592 8.80371C5.03613 8.73408 5.02667 8.67119 5.01721 8.6083C5.08675 8.60065 5.1566 8.58645 5.22561 8.58975C5.24372 8.59062 5.27866 8.6513 5.27193 8.67477C5.25761 8.72465 5.22982 8.77946 5.19038 8.81023C5.16461 8.83032 5.10867 8.81172 5.05592 8.80371Z" fill="#C9444C"/>
</g>
<defs>
<clipPath id="clip0_0_1">
<rect width="15" height="15" fill="white"/>
</clipPath>
</defs>
</svg>
